{
  "project_info": {
    "project_number": "501737628525",
    "firebase_url": "https://smartlybiz.firebaseio.com",
    "project_id": "smartlybiz",
    "storage_bucket": "smartlybiz.appspot.com"
  },
  "client": [
    {
      "client_info": {
        "mobilesdk_app_id": "1:501737628525:android:e4a5537bbbd47f04",
        "android_client_info": {
          "package_name": "com.masology.smartlybiz"
        }
      },
      "oauth_client": [
        {
          "client_id": "501737628525-8pm94g9jlkk1licgq331lc9d65voour8.apps.googleusercontent.com",
          "client_type": 1,
          "android_info": {
            "package_name": "com.masology.smartlybiz",
            "certificate_hash": "34ba5c69484d2dfed3d738a4018244a299720fc3"
          }
        },
        {
          "client_id": "501737628525-c277mrau64c2tukeq6lchoijtv34rnn5.apps.googleusercontent.com",
          "client_type": 1,
          "android_info": {
            "package_name": "com.masology.smartlybiz",
            "certificate_hash": "b3901eb4c2c9d8276e7ceaed2e4237de84d1f263"
          }
        }
      ],
      "api_key": [
        {
          "current_key": "AIzaSyC9HTpQA6kV_qTindOgyT-597y01GAiYl8"
        }
      ],
      "services": {
        "appinvite_service": {
          "other_platform_oauth_client": [
            {
              "client_id": "501737628525-svif12n646matj6acdbb8l3ritrai102.apps.googleusercontent.com",
              "client_type": 3
            }
          ]
        }
      }
    }
  ],
  "configuration_version": "1"
}